[{
    "question_id":1,
    "question": "Tell me something about yourself that's not on your resume?",
    "score": 69,
    "tip": "Don't be boring"
},
{
    "question_id":2,
    "question": "What is your biggest academic achievement?",
    "score": 100,
    "tip": "Talk more about your grades and stuff"
},
{
    "question_id":3,
    "question": "What are your strengths?",
    "score": 48,
    "tip": "Stand out and talk about how your strengths make you more qualified than others"
},
{
    "question_id":4,
    "question": "What do you think is better? Being Fast or Efficient.",
    "score": 32,
    "tip": "Remember there is no wrong answer as long as you have points to back up your choice."
},
{
    "question_id":5,
    "question": "Tell me something about yourself that's not on your resume."
    ,
    "score": 25,
    "tip": "This is your chance to sell yourself, take advantage!"
}
,
{
    "question_id":6,
    "question": "What are your strengths?",
    "score": 51,
    "tip": "Stand out and talk about how your strengths make you more qualified than others"
}
]